\relax 
\providecommand\hyper@newdestlabel[2]{}
\providecommand\HyperFirstAtBeginDocument{\AtBeginDocument}
\HyperFirstAtBeginDocument{\ifx\hyper@anchor\@undefined
\global\let\oldcontentsline\contentsline
\gdef\contentsline#1#2#3#4{\oldcontentsline{#1}{#2}{#3}}
\global\let\oldnewlabel\newlabel
\gdef\newlabel#1#2{\newlabelxx{#1}#2}
\gdef\newlabelxx#1#2#3#4#5#6{\oldnewlabel{#1}{{#2}{#3}}}
\AtEndDocument{\ifx\hyper@anchor\@undefined
\let\contentsline\oldcontentsline
\let\newlabel\oldnewlabel
\fi}
\fi}
\global\let\hyper@last\relax 
\gdef\HyperFirstAtBeginDocument#1{#1}
\providecommand\HyField@AuxAddToFields[1]{}
\providecommand\HyField@AuxAddToCoFields[2]{}
\providecommand \oddpage@label [2]{}
\@writefile{toc}{\contentsline {chapter}{\numberline {1}Namespace Index}{1}{chapter.1}}
\@writefile{lof}{\addvspace {10\p@ }}
\@writefile{lot}{\addvspace {10\p@ }}
\@writefile{toc}{\contentsline {section}{\numberline {1.1}Namespace List}{1}{section.1.1}}
\@writefile{toc}{\contentsline {chapter}{\numberline {2}Hierarchical Index}{3}{chapter.2}}
\@writefile{lof}{\addvspace {10\p@ }}
\@writefile{lot}{\addvspace {10\p@ }}
\@writefile{toc}{\contentsline {section}{\numberline {2.1}Class Hierarchy}{3}{section.2.1}}
\@writefile{toc}{\contentsline {chapter}{\numberline {3}Class Index}{5}{chapter.3}}
\@writefile{lof}{\addvspace {10\p@ }}
\@writefile{lot}{\addvspace {10\p@ }}
\@writefile{toc}{\contentsline {section}{\numberline {3.1}Class List}{5}{section.3.1}}
\@writefile{toc}{\contentsline {chapter}{\numberline {4}File Index}{7}{chapter.4}}
\@writefile{lof}{\addvspace {10\p@ }}
\@writefile{lot}{\addvspace {10\p@ }}
\@writefile{toc}{\contentsline {section}{\numberline {4.1}File List}{7}{section.4.1}}
\@writefile{toc}{\contentsline {chapter}{\numberline {5}Namespace Documentation}{9}{chapter.5}}
\@writefile{lof}{\addvspace {10\p@ }}
\@writefile{lot}{\addvspace {10\p@ }}
\@writefile{toc}{\contentsline {section}{\numberline {5.1}Snowstorm Namespace Reference}{9}{section.5.1}}
\newlabel{namespace_snowstorm}{{5.1}{9}{Snowstorm Namespace Reference}{section.5.1}{}}
\gdef \LT@i {\LT@entry 
    {3}{52.21938pt}\LT@entry 
    {3}{144.37329pt}}
\@writefile{toc}{\contentsline {subsection}{\numberline {5.1.1}Enumeration Type Documentation}{10}{subsection.5.1.1}}
\newlabel{namespace_snowstorm_a09c23a1d5de42ef082bd045eadd60e8c}{{5.1.1}{10}{Enumeration Type Documentation}{subsection.5.1.1}{}}
\@writefile{toc}{\contentsline {subsubsection}{\numberline {5.1.1.1}States}{10}{subsubsection.5.1.1.1}}
\newlabel{namespace_snowstorm_a09c23a1d5de42ef082bd045eadd60e8ca55276c10d84e1df7713b441e76e141f9}{{5.1}{10}{\texorpdfstring {States}{States}}{table.5.1}{}}
\newlabel{namespace_snowstorm_a09c23a1d5de42ef082bd045eadd60e8cadefe967ad0373b2274fc298f19125ca7}{{5.1}{10}{\texorpdfstring {States}{States}}{table.5.1}{}}
\newlabel{namespace_snowstorm_a09c23a1d5de42ef082bd045eadd60e8cacf4a0298c82a0d16c03788f8d0ce273c}{{5.1}{10}{\texorpdfstring {States}{States}}{table.5.1}{}}
\newlabel{namespace_snowstorm_a09c23a1d5de42ef082bd045eadd60e8ca39bc79dfd586f26b6a732bd1fc1e2248}{{5.1}{10}{\texorpdfstring {States}{States}}{table.5.1}{}}
\@writefile{toc}{\contentsline {section}{\numberline {5.2}Snowstorm.\discretionary {\unhbox \voidb@x \hbox {\relax \fontsize  {7}{8}\selectfont  $\leftarrow \joinrel  \rhook $}}{}{}Properties Namespace Reference}{10}{section.5.2}}
\newlabel{namespace_snowstorm_1_1_properties}{{5.2}{10}{Snowstorm.\+Properties Namespace Reference}{section.5.2}{}}
\@writefile{toc}{\contentsline {section}{\numberline {5.3}Xaml\discretionary {\unhbox \voidb@x \hbox {\relax \fontsize  {7}{8}\selectfont  $\leftarrow \joinrel  \rhook $}}{}{}Generated\discretionary {\unhbox \voidb@x \hbox {\relax \fontsize  {7}{8}\selectfont  $\leftarrow \joinrel  \rhook $}}{}{}Namespace Namespace Reference}{10}{section.5.3}}
\newlabel{namespace_xaml_generated_namespace}{{5.3}{10}{Xaml\+Generated\+Namespace Namespace Reference}{section.5.3}{}}
\@writefile{toc}{\contentsline {chapter}{\numberline {6}Class Documentation}{11}{chapter.6}}
\@writefile{lof}{\addvspace {10\p@ }}
\@writefile{lot}{\addvspace {10\p@ }}
\@writefile{toc}{\contentsline {section}{\numberline {6.1}Snowstorm.\discretionary {\unhbox \voidb@x \hbox {\relax \fontsize  {7}{8}\selectfont  $\leftarrow \joinrel  \rhook $}}{}{}App Class Reference}{11}{section.6.1}}
\newlabel{class_snowstorm_1_1_app}{{6.1}{11}{Snowstorm.\+App Class Reference}{section.6.1}{}}
\@writefile{toc}{\contentsline {subsection}{\numberline {6.1.1}Detailed Description}{11}{subsection.6.1.1}}
\@writefile{toc}{\contentsline {subsection}{\numberline {6.1.2}Member Function Documentation}{12}{subsection.6.1.2}}
\newlabel{class_snowstorm_1_1_app_af51ed3440532b72eb5f7928db7ae7a53}{{6.1.2}{12}{Member Function Documentation}{subsection.6.1.2}{}}
\@writefile{toc}{\contentsline {subsubsection}{\numberline {6.1.2.1}Initialize\discretionary {\unhbox \voidb@x \hbox {\relax \fontsize  {7}{8}\selectfont  $\leftarrow \joinrel  \rhook $}}{}{}Component()\hspace  {0.1cm}{\relax \fontsize  {8}{9.5}\selectfont  \abovedisplayskip 6\p@ plus2\p@ minus4\p@ \abovedisplayshortskip \z@ plus\p@ \belowdisplayshortskip 3\p@ plus\p@ minus2\p@ \def \leftmargin \leftmargini \parsep 4\p@ plus2\p@ minus\p@ \topsep 8\p@ plus2\p@ minus4\p@ \itemsep 4\p@ plus2\p@ minus\p@ {\leftmargin \leftmargini \topsep 3\p@ plus\p@ minus\p@ \parsep 2\p@ plus\p@ minus\p@ \itemsep \parsep }\belowdisplayskip \abovedisplayskip \ttfamily  [1/2]}}{12}{subsubsection.6.1.2.1}}
\newlabel{class_snowstorm_1_1_app_af51ed3440532b72eb5f7928db7ae7a53}{{6.1.2.1}{12}{\texorpdfstring {Initialize\+Component()}{InitializeComponent()}\hspace {0.1cm}{\footnotesize \ttfamily [1/2]}}{subsubsection.6.1.2.1}{}}
\@writefile{toc}{\contentsline {subsubsection}{\numberline {6.1.2.2}Initialize\discretionary {\unhbox \voidb@x \hbox {\relax \fontsize  {7}{8}\selectfont  $\leftarrow \joinrel  \rhook $}}{}{}Component()\hspace  {0.1cm}{\relax \fontsize  {8}{9.5}\selectfont  \abovedisplayskip 6\p@ plus2\p@ minus4\p@ \abovedisplayshortskip \z@ plus\p@ \belowdisplayshortskip 3\p@ plus\p@ minus2\p@ \def \leftmargin \leftmargini \parsep 4\p@ plus2\p@ minus\p@ \topsep 8\p@ plus2\p@ minus4\p@ \itemsep 4\p@ plus2\p@ minus\p@ {\leftmargin \leftmargini \topsep 3\p@ plus\p@ minus\p@ \parsep 2\p@ plus\p@ minus\p@ \itemsep \parsep }\belowdisplayskip \abovedisplayskip \ttfamily  [2/2]}}{12}{subsubsection.6.1.2.2}}
\newlabel{class_snowstorm_1_1_app_a05a94b7f0b3c903be8fdb9a60ae412a2}{{6.1.2.2}{12}{\texorpdfstring {Initialize\+Component()}{InitializeComponent()}\hspace {0.1cm}{\footnotesize \ttfamily [2/2]}}{subsubsection.6.1.2.2}{}}
\@writefile{toc}{\contentsline {subsubsection}{\numberline {6.1.2.3}Main()\hspace  {0.1cm}{\relax \fontsize  {8}{9.5}\selectfont  \abovedisplayskip 6\p@ plus2\p@ minus4\p@ \abovedisplayshortskip \z@ plus\p@ \belowdisplayshortskip 3\p@ plus\p@ minus2\p@ \def \leftmargin \leftmargini \parsep 4\p@ plus2\p@ minus\p@ \topsep 8\p@ plus2\p@ minus4\p@ \itemsep 4\p@ plus2\p@ minus\p@ {\leftmargin \leftmargini \topsep 3\p@ plus\p@ minus\p@ \parsep 2\p@ plus\p@ minus\p@ \itemsep \parsep }\belowdisplayskip \abovedisplayskip \ttfamily  [1/2]}}{12}{subsubsection.6.1.2.3}}
\newlabel{class_snowstorm_1_1_app_a05a94b7f0b3c903be8fdb9a60ae412a2}{{6.1.2.3}{12}{\texorpdfstring {Main()}{Main()}\hspace {0.1cm}{\footnotesize \ttfamily [1/2]}}{subsubsection.6.1.2.3}{}}
\@writefile{toc}{\contentsline {subsubsection}{\numberline {6.1.2.4}Main()\hspace  {0.1cm}{\relax \fontsize  {8}{9.5}\selectfont  \abovedisplayskip 6\p@ plus2\p@ minus4\p@ \abovedisplayshortskip \z@ plus\p@ \belowdisplayshortskip 3\p@ plus\p@ minus2\p@ \def \leftmargin \leftmargini \parsep 4\p@ plus2\p@ minus\p@ \topsep 8\p@ plus2\p@ minus4\p@ \itemsep 4\p@ plus2\p@ minus\p@ {\leftmargin \leftmargini \topsep 3\p@ plus\p@ minus\p@ \parsep 2\p@ plus\p@ minus\p@ \itemsep \parsep }\belowdisplayskip \abovedisplayskip \ttfamily  [2/2]}}{12}{subsubsection.6.1.2.4}}
\@writefile{toc}{\contentsline {section}{\numberline {6.2}Snowstorm.\discretionary {\unhbox \voidb@x \hbox {\relax \fontsize  {7}{8}\selectfont  $\leftarrow \joinrel  \rhook $}}{}{}Bindable Class Reference}{12}{section.6.2}}
\newlabel{class_snowstorm_1_1_bindable}{{6.2}{12}{Snowstorm.\+Bindable Class Reference}{section.6.2}{}}
\@writefile{toc}{\contentsline {subsection}{\numberline {6.2.1}Detailed Description}{13}{subsection.6.2.1}}
\@writefile{toc}{\contentsline {subsection}{\numberline {6.2.2}Member Function Documentation}{13}{subsection.6.2.2}}
\newlabel{class_snowstorm_1_1_bindable_a332f59b075c5c531f08e97af9be14c19}{{6.2.2}{13}{Member Function Documentation}{subsection.6.2.2}{}}
\@writefile{toc}{\contentsline {subsubsection}{\numberline {6.2.2.1}Refresh()}{13}{subsubsection.6.2.2.1}}
\@writefile{toc}{\contentsline {subsection}{\numberline {6.2.3}Event Documentation}{13}{subsection.6.2.3}}
\newlabel{class_snowstorm_1_1_bindable_ac07a2748afff795f28aa98f945b18dba}{{6.2.3}{13}{Event Documentation}{subsection.6.2.3}{}}
\@writefile{toc}{\contentsline {subsubsection}{\numberline {6.2.3.1}Property\discretionary {\unhbox \voidb@x \hbox {\relax \fontsize  {7}{8}\selectfont  $\leftarrow \joinrel  \rhook $}}{}{}Changed}{13}{subsubsection.6.2.3.1}}
\@writefile{toc}{\contentsline {section}{\numberline {6.3}Snowstorm.\discretionary {\unhbox \voidb@x \hbox {\relax \fontsize  {7}{8}\selectfont  $\leftarrow \joinrel  \rhook $}}{}{}Game\discretionary {\unhbox \voidb@x \hbox {\relax \fontsize  {7}{8}\selectfont  $\leftarrow \joinrel  \rhook $}}{}{}Field Class Reference}{13}{section.6.3}}
\newlabel{class_snowstorm_1_1_game_field}{{6.3}{13}{Snowstorm.\+Game\+Field Class Reference}{section.6.3}{}}
\gdef \LT@ii {\LT@entry 
    {3}{74.78192pt}\LT@entry 
    {3}{80.87973pt}}
\@writefile{toc}{\contentsline {subsection}{\numberline {6.3.1}Detailed Description}{14}{subsection.6.3.1}}
\@writefile{toc}{\contentsline {subsection}{\numberline {6.3.2}Constructor \& Destructor Documentation}{14}{subsection.6.3.2}}
\newlabel{class_snowstorm_1_1_game_field_a5e23117e246d7ae27f06b2146c5e240a}{{6.3.2}{14}{Constructor \& Destructor Documentation}{subsection.6.3.2}{}}
\@writefile{toc}{\contentsline {subsubsection}{\numberline {6.3.2.1}Game\discretionary {\unhbox \voidb@x \hbox {\relax \fontsize  {7}{8}\selectfont  $\leftarrow \joinrel  \rhook $}}{}{}Field()}{14}{subsubsection.6.3.2.1}}
\@writefile{toc}{\contentsline {subsection}{\numberline {6.3.3}Member Function Documentation}{14}{subsection.6.3.3}}
\newlabel{class_snowstorm_1_1_game_field_a6d59a7ca764dd93a15f989e1da008dbd}{{6.3.3}{14}{Member Function Documentation}{subsection.6.3.3}{}}
\@writefile{toc}{\contentsline {subsubsection}{\numberline {6.3.3.1}On\discretionary {\unhbox \voidb@x \hbox {\relax \fontsize  {7}{8}\selectfont  $\leftarrow \joinrel  \rhook $}}{}{}Render()}{14}{subsubsection.6.3.3.1}}
\newlabel{class_snowstorm_1_1_game_field_af85d38a2945de62cea62d1d4d7ac1868}{{6.3.3.1}{14}{\texorpdfstring {On\+Render()}{OnRender()}}{table.6.1}{}}
\gdef \LT@iii {\LT@entry 
    {3}{59.81519pt}\LT@entry 
    {3}{128.16464pt}}
\@writefile{toc}{\contentsline {subsubsection}{\numberline {6.3.3.2}Set\discretionary {\unhbox \voidb@x \hbox {\relax \fontsize  {7}{8}\selectfont  $\leftarrow \joinrel  \rhook $}}{}{}Data()}{15}{subsubsection.6.3.3.2}}
\@writefile{toc}{\contentsline {section}{\numberline {6.4}Snowstorm.\discretionary {\unhbox \voidb@x \hbox {\relax \fontsize  {7}{8}\selectfont  $\leftarrow \joinrel  \rhook $}}{}{}Game\discretionary {\unhbox \voidb@x \hbox {\relax \fontsize  {7}{8}\selectfont  $\leftarrow \joinrel  \rhook $}}{}{}Logic Class Reference}{15}{section.6.4}}
\newlabel{class_snowstorm_1_1_game_logic}{{6.4}{15}{Snowstorm.\+Game\+Logic Class Reference}{section.6.4}{}}
\gdef \LT@iv {\LT@entry 
    {3}{59.81519pt}\LT@entry 
    {3}{124.98775pt}}
\@writefile{toc}{\contentsline {subsection}{\numberline {6.4.1}Detailed Description}{16}{subsection.6.4.1}}
\@writefile{toc}{\contentsline {subsection}{\numberline {6.4.2}Constructor \& Destructor Documentation}{16}{subsection.6.4.2}}
\newlabel{class_snowstorm_1_1_game_logic_a161a534df66d6fcb292e762db3a799c4}{{6.4.2}{16}{Constructor \& Destructor Documentation}{subsection.6.4.2}{}}
\@writefile{toc}{\contentsline {subsubsection}{\numberline {6.4.2.1}Game\discretionary {\unhbox \voidb@x \hbox {\relax \fontsize  {7}{8}\selectfont  $\leftarrow \joinrel  \rhook $}}{}{}Logic()}{16}{subsubsection.6.4.2.1}}
\@writefile{toc}{\contentsline {subsection}{\numberline {6.4.3}Member Function Documentation}{16}{subsection.6.4.3}}
\newlabel{class_snowstorm_1_1_game_logic_a3914d4ce6a4e345845310a5cfa786298}{{6.4.3}{16}{Member Function Documentation}{subsection.6.4.3}{}}
\@writefile{toc}{\contentsline {subsubsection}{\numberline {6.4.3.1}Check\discretionary {\unhbox \voidb@x \hbox {\relax \fontsize  {7}{8}\selectfont  $\leftarrow \joinrel  \rhook $}}{}{}A\discretionary {\unhbox \voidb@x \hbox {\relax \fontsize  {7}{8}\selectfont  $\leftarrow \joinrel  \rhook $}}{}{}I\discretionary {\unhbox \voidb@x \hbox {\relax \fontsize  {7}{8}\selectfont  $\leftarrow \joinrel  \rhook $}}{}{}On\discretionary {\unhbox \voidb@x \hbox {\relax \fontsize  {7}{8}\selectfont  $\leftarrow \joinrel  \rhook $}}{}{}Touch()}{16}{subsubsection.6.4.3.1}}
\newlabel{class_snowstorm_1_1_game_logic_a044062beb4edd952ef11865cdeae8f51}{{6.4.3.1}{16}{\texorpdfstring {Check\+A\+I\+On\+Touch()}{CheckAIOnTouch()}}{subsubsection.6.4.3.1}{}}
\@writefile{toc}{\contentsline {subsubsection}{\numberline {6.4.3.2}Check\discretionary {\unhbox \voidb@x \hbox {\relax \fontsize  {7}{8}\selectfont  $\leftarrow \joinrel  \rhook $}}{}{}Player\discretionary {\unhbox \voidb@x \hbox {\relax \fontsize  {7}{8}\selectfont  $\leftarrow \joinrel  \rhook $}}{}{}On\discretionary {\unhbox \voidb@x \hbox {\relax \fontsize  {7}{8}\selectfont  $\leftarrow \joinrel  \rhook $}}{}{}Touch()}{16}{subsubsection.6.4.3.2}}
\newlabel{class_snowstorm_1_1_game_logic_ac45e02ee658839d3d447fbc25145f30c}{{6.4.3.2}{16}{\texorpdfstring {Check\+Player\+On\+Touch()}{CheckPlayerOnTouch()}}{subsubsection.6.4.3.2}{}}
\@writefile{toc}{\contentsline {subsubsection}{\numberline {6.4.3.3}Check\discretionary {\unhbox \voidb@x \hbox {\relax \fontsize  {7}{8}\selectfont  $\leftarrow \joinrel  \rhook $}}{}{}The\discretionary {\unhbox \voidb@x \hbox {\relax \fontsize  {7}{8}\selectfont  $\leftarrow \joinrel  \rhook $}}{}{}Winner()}{16}{subsubsection.6.4.3.3}}
\newlabel{class_snowstorm_1_1_game_logic_a820899090685ad46a7b2bec47b2526bc}{{6.4.3.3}{16}{\texorpdfstring {Check\+The\+Winner()}{CheckTheWinner()}}{subsubsection.6.4.3.3}{}}
\gdef \LT@v {\LT@entry 
    {3}{36.85666pt}\LT@entry 
    {3}{67.38896pt}}
\gdef \LT@vi {\LT@entry 
    {3}{59.86911pt}\LT@entry 
    {3}{75.42577pt}}
\gdef \LT@vii {\LT@entry 
    {3}{59.86911pt}\LT@entry 
    {3}{75.42577pt}}
\@writefile{toc}{\contentsline {subsubsection}{\numberline {6.4.3.4}Initiate\discretionary {\unhbox \voidb@x \hbox {\relax \fontsize  {7}{8}\selectfont  $\leftarrow \joinrel  \rhook $}}{}{}A\discretionary {\unhbox \voidb@x \hbox {\relax \fontsize  {7}{8}\selectfont  $\leftarrow \joinrel  \rhook $}}{}{}I()}{17}{subsubsection.6.4.3.4}}
\newlabel{class_snowstorm_1_1_game_logic_ae8e6859fbec02abd0f738c3ff382e076}{{6.4.3.4}{17}{\texorpdfstring {Initiate\+A\+I()}{InitiateAI()}}{subsubsection.6.4.3.4}{}}
\@writefile{toc}{\contentsline {subsubsection}{\numberline {6.4.3.5}Move\discretionary {\unhbox \voidb@x \hbox {\relax \fontsize  {7}{8}\selectfont  $\leftarrow \joinrel  \rhook $}}{}{}A\discretionary {\unhbox \voidb@x \hbox {\relax \fontsize  {7}{8}\selectfont  $\leftarrow \joinrel  \rhook $}}{}{}I()}{17}{subsubsection.6.4.3.5}}
\newlabel{class_snowstorm_1_1_game_logic_aa63ba525c2d7ebd70670c382718845da}{{6.4.3.5}{17}{\texorpdfstring {Move\+A\+I()}{MoveAI()}}{table.6.4}{}}
\@writefile{toc}{\contentsline {subsubsection}{\numberline {6.4.3.6}Move\discretionary {\unhbox \voidb@x \hbox {\relax \fontsize  {7}{8}\selectfont  $\leftarrow \joinrel  \rhook $}}{}{}Player()}{17}{subsubsection.6.4.3.6}}
\newlabel{class_snowstorm_1_1_game_logic_a63ca6410dcc0220fac541d0d5fee3337}{{6.4.3.6}{17}{\texorpdfstring {Move\+Player()}{MovePlayer()}}{table.6.5}{}}
\@writefile{toc}{\contentsline {subsubsection}{\numberline {6.4.3.7}Select\discretionary {\unhbox \voidb@x \hbox {\relax \fontsize  {7}{8}\selectfont  $\leftarrow \joinrel  \rhook $}}{}{}Player()}{17}{subsubsection.6.4.3.7}}
\newlabel{class_snowstorm_1_1_game_logic_afa6f491d2df51baf353b39dccde67101}{{6.4.3.7}{18}{\texorpdfstring {Select\+Player()}{SelectPlayer()}}{table.6.6}{}}
\@writefile{toc}{\contentsline {subsubsection}{\numberline {6.4.3.8}Snow\discretionary {\unhbox \voidb@x \hbox {\relax \fontsize  {7}{8}\selectfont  $\leftarrow \joinrel  \rhook $}}{}{}Ball\discretionary {\unhbox \voidb@x \hbox {\relax \fontsize  {7}{8}\selectfont  $\leftarrow \joinrel  \rhook $}}{}{}Shoot()}{18}{subsubsection.6.4.3.8}}
\newlabel{class_snowstorm_1_1_game_logic_a4bfdada12183a59e0af8c0e93870bcb2}{{6.4.3.8}{18}{\texorpdfstring {Snow\+Ball\+Shoot()}{SnowBallShoot()}}{subsubsection.6.4.3.8}{}}
\@writefile{toc}{\contentsline {subsubsection}{\numberline {6.4.3.9}Unselect\discretionary {\unhbox \voidb@x \hbox {\relax \fontsize  {7}{8}\selectfont  $\leftarrow \joinrel  \rhook $}}{}{}Player\discretionary {\unhbox \voidb@x \hbox {\relax \fontsize  {7}{8}\selectfont  $\leftarrow \joinrel  \rhook $}}{}{}And\discretionary {\unhbox \voidb@x \hbox {\relax \fontsize  {7}{8}\selectfont  $\leftarrow \joinrel  \rhook $}}{}{}Shoot()}{18}{subsubsection.6.4.3.9}}
\@writefile{toc}{\contentsline {section}{\numberline {6.5}Snowstorm.\discretionary {\unhbox \voidb@x \hbox {\relax \fontsize  {7}{8}\selectfont  $\leftarrow \joinrel  \rhook $}}{}{}Game\discretionary {\unhbox \voidb@x \hbox {\relax \fontsize  {7}{8}\selectfont  $\leftarrow \joinrel  \rhook $}}{}{}Model Class Reference}{18}{section.6.5}}
\newlabel{class_snowstorm_1_1_game_model}{{6.5}{18}{Snowstorm.\+Game\+Model Class Reference}{section.6.5}{}}
\gdef \LT@viii {\LT@entry 
    {3}{37.31546pt}\LT@entry 
    {3}{84.74953pt}}
\@writefile{toc}{\contentsline {subsection}{\numberline {6.5.1}Detailed Description}{19}{subsection.6.5.1}}
\@writefile{toc}{\contentsline {subsection}{\numberline {6.5.2}Constructor \& Destructor Documentation}{19}{subsection.6.5.2}}
\newlabel{class_snowstorm_1_1_game_model_ae5da2eb2bcc5b67aa01c0c2c10a49112}{{6.5.2}{19}{Constructor \& Destructor Documentation}{subsection.6.5.2}{}}
\@writefile{toc}{\contentsline {subsubsection}{\numberline {6.5.2.1}Game\discretionary {\unhbox \voidb@x \hbox {\relax \fontsize  {7}{8}\selectfont  $\leftarrow \joinrel  \rhook $}}{}{}Model()}{19}{subsubsection.6.5.2.1}}
\@writefile{toc}{\contentsline {subsection}{\numberline {6.5.3}Property Documentation}{19}{subsection.6.5.3}}
\newlabel{class_snowstorm_1_1_game_model_a9a1df41a612deff89d67d718f1066b34}{{6.5.3}{19}{Property Documentation}{subsection.6.5.3}{}}
\@writefile{toc}{\contentsline {subsubsection}{\numberline {6.5.3.1}First\discretionary {\unhbox \voidb@x \hbox {\relax \fontsize  {7}{8}\selectfont  $\leftarrow \joinrel  \rhook $}}{}{}Team\discretionary {\unhbox \voidb@x \hbox {\relax \fontsize  {7}{8}\selectfont  $\leftarrow \joinrel  \rhook $}}{}{}Players}{19}{subsubsection.6.5.3.1}}
\newlabel{class_snowstorm_1_1_game_model_af1f9f089c4a84cf1cb11a08082ddcbb4}{{6.5.3.1}{19}{\texorpdfstring {First\+Team\+Players}{FirstTeamPlayers}}{subsubsection.6.5.3.1}{}}
\@writefile{toc}{\contentsline {subsubsection}{\numberline {6.5.3.2}Height}{19}{subsubsection.6.5.3.2}}
\newlabel{class_snowstorm_1_1_game_model_a42bb648610b39694fc69122da9ff78b5}{{6.5.3.2}{19}{\texorpdfstring {Height}{Height}}{subsubsection.6.5.3.2}{}}
\@writefile{toc}{\contentsline {subsubsection}{\numberline {6.5.3.3}Second\discretionary {\unhbox \voidb@x \hbox {\relax \fontsize  {7}{8}\selectfont  $\leftarrow \joinrel  \rhook $}}{}{}Team\discretionary {\unhbox \voidb@x \hbox {\relax \fontsize  {7}{8}\selectfont  $\leftarrow \joinrel  \rhook $}}{}{}Players}{19}{subsubsection.6.5.3.3}}
\newlabel{class_snowstorm_1_1_game_model_accc18501f892de8795a87c5883dd2878}{{6.5.3.3}{19}{\texorpdfstring {Second\+Team\+Players}{SecondTeamPlayers}}{subsubsection.6.5.3.3}{}}
\@writefile{toc}{\contentsline {subsubsection}{\numberline {6.5.3.4}Width}{20}{subsubsection.6.5.3.4}}
\@writefile{toc}{\contentsline {section}{\numberline {6.6}Xaml\discretionary {\unhbox \voidb@x \hbox {\relax \fontsize  {7}{8}\selectfont  $\leftarrow \joinrel  \rhook $}}{}{}Generated\discretionary {\unhbox \voidb@x \hbox {\relax \fontsize  {7}{8}\selectfont  $\leftarrow \joinrel  \rhook $}}{}{}Namespace.\discretionary {\unhbox \voidb@x \hbox {\relax \fontsize  {7}{8}\selectfont  $\leftarrow \joinrel  \rhook $}}{}{}Generated\discretionary {\unhbox \voidb@x \hbox {\relax \fontsize  {7}{8}\selectfont  $\leftarrow \joinrel  \rhook $}}{}{}Internal\discretionary {\unhbox \voidb@x \hbox {\relax \fontsize  {7}{8}\selectfont  $\leftarrow \joinrel  \rhook $}}{}{}Type\discretionary {\unhbox \voidb@x \hbox {\relax \fontsize  {7}{8}\selectfont  $\leftarrow \joinrel  \rhook $}}{}{}Helper Class Reference}{20}{section.6.6}}
\newlabel{class_xaml_generated_namespace_1_1_generated_internal_type_helper}{{6.6}{20}{Xaml\+Generated\+Namespace.\+Generated\+Internal\+Type\+Helper Class Reference}{section.6.6}{}}
\@writefile{toc}{\contentsline {subsection}{\numberline {6.6.1}Detailed Description}{21}{subsection.6.6.1}}
\@writefile{toc}{\contentsline {subsection}{\numberline {6.6.2}Member Function Documentation}{21}{subsection.6.6.2}}
\newlabel{class_xaml_generated_namespace_1_1_generated_internal_type_helper_a73471f4a6d1ca4c4fceec9ad8610f0c8}{{6.6.2}{21}{Member Function Documentation}{subsection.6.6.2}{}}
\@writefile{toc}{\contentsline {subsubsection}{\numberline {6.6.2.1}Add\discretionary {\unhbox \voidb@x \hbox {\relax \fontsize  {7}{8}\selectfont  $\leftarrow \joinrel  \rhook $}}{}{}Event\discretionary {\unhbox \voidb@x \hbox {\relax \fontsize  {7}{8}\selectfont  $\leftarrow \joinrel  \rhook $}}{}{}Handler()\hspace  {0.1cm}{\relax \fontsize  {8}{9.5}\selectfont  \abovedisplayskip 6\p@ plus2\p@ minus4\p@ \abovedisplayshortskip \z@ plus\p@ \belowdisplayshortskip 3\p@ plus\p@ minus2\p@ \def \leftmargin \leftmargini \parsep 4\p@ plus2\p@ minus\p@ \topsep 8\p@ plus2\p@ minus4\p@ \itemsep 4\p@ plus2\p@ minus\p@ {\leftmargin \leftmargini \topsep 3\p@ plus\p@ minus\p@ \parsep 2\p@ plus\p@ minus\p@ \itemsep \parsep }\belowdisplayskip \abovedisplayskip \ttfamily  [1/2]}}{21}{subsubsection.6.6.2.1}}
\newlabel{class_xaml_generated_namespace_1_1_generated_internal_type_helper_a73471f4a6d1ca4c4fceec9ad8610f0c8}{{6.6.2.1}{21}{\texorpdfstring {Add\+Event\+Handler()}{AddEventHandler()}\hspace {0.1cm}{\footnotesize \ttfamily [1/2]}}{subsubsection.6.6.2.1}{}}
\@writefile{toc}{\contentsline {subsubsection}{\numberline {6.6.2.2}Add\discretionary {\unhbox \voidb@x \hbox {\relax \fontsize  {7}{8}\selectfont  $\leftarrow \joinrel  \rhook $}}{}{}Event\discretionary {\unhbox \voidb@x \hbox {\relax \fontsize  {7}{8}\selectfont  $\leftarrow \joinrel  \rhook $}}{}{}Handler()\hspace  {0.1cm}{\relax \fontsize  {8}{9.5}\selectfont  \abovedisplayskip 6\p@ plus2\p@ minus4\p@ \abovedisplayshortskip \z@ plus\p@ \belowdisplayshortskip 3\p@ plus\p@ minus2\p@ \def \leftmargin \leftmargini \parsep 4\p@ plus2\p@ minus\p@ \topsep 8\p@ plus2\p@ minus4\p@ \itemsep 4\p@ plus2\p@ minus\p@ {\leftmargin \leftmargini \topsep 3\p@ plus\p@ minus\p@ \parsep 2\p@ plus\p@ minus\p@ \itemsep \parsep }\belowdisplayskip \abovedisplayskip \ttfamily  [2/2]}}{21}{subsubsection.6.6.2.2}}
\newlabel{class_xaml_generated_namespace_1_1_generated_internal_type_helper_a8ec4c37e82d9f4e867e9655f4eac3a78}{{6.6.2.2}{21}{\texorpdfstring {Add\+Event\+Handler()}{AddEventHandler()}\hspace {0.1cm}{\footnotesize \ttfamily [2/2]}}{subsubsection.6.6.2.2}{}}
\@writefile{toc}{\contentsline {subsubsection}{\numberline {6.6.2.3}Create\discretionary {\unhbox \voidb@x \hbox {\relax \fontsize  {7}{8}\selectfont  $\leftarrow \joinrel  \rhook $}}{}{}Delegate()\hspace  {0.1cm}{\relax \fontsize  {8}{9.5}\selectfont  \abovedisplayskip 6\p@ plus2\p@ minus4\p@ \abovedisplayshortskip \z@ plus\p@ \belowdisplayshortskip 3\p@ plus\p@ minus2\p@ \def \leftmargin \leftmargini \parsep 4\p@ plus2\p@ minus\p@ \topsep 8\p@ plus2\p@ minus4\p@ \itemsep 4\p@ plus2\p@ minus\p@ {\leftmargin \leftmargini \topsep 3\p@ plus\p@ minus\p@ \parsep 2\p@ plus\p@ minus\p@ \itemsep \parsep }\belowdisplayskip \abovedisplayskip \ttfamily  [1/2]}}{21}{subsubsection.6.6.2.3}}
\newlabel{class_xaml_generated_namespace_1_1_generated_internal_type_helper_a8ec4c37e82d9f4e867e9655f4eac3a78}{{6.6.2.3}{21}{\texorpdfstring {Create\+Delegate()}{CreateDelegate()}\hspace {0.1cm}{\footnotesize \ttfamily [1/2]}}{subsubsection.6.6.2.3}{}}
\@writefile{toc}{\contentsline {subsubsection}{\numberline {6.6.2.4}Create\discretionary {\unhbox \voidb@x \hbox {\relax \fontsize  {7}{8}\selectfont  $\leftarrow \joinrel  \rhook $}}{}{}Delegate()\hspace  {0.1cm}{\relax \fontsize  {8}{9.5}\selectfont  \abovedisplayskip 6\p@ plus2\p@ minus4\p@ \abovedisplayshortskip \z@ plus\p@ \belowdisplayshortskip 3\p@ plus\p@ minus2\p@ \def \leftmargin \leftmargini \parsep 4\p@ plus2\p@ minus\p@ \topsep 8\p@ plus2\p@ minus4\p@ \itemsep 4\p@ plus2\p@ minus\p@ {\leftmargin \leftmargini \topsep 3\p@ plus\p@ minus\p@ \parsep 2\p@ plus\p@ minus\p@ \itemsep \parsep }\belowdisplayskip \abovedisplayskip \ttfamily  [2/2]}}{21}{subsubsection.6.6.2.4}}
\newlabel{class_xaml_generated_namespace_1_1_generated_internal_type_helper_aefb7a98fceb9c287cef4756942f441d1}{{6.6.2.4}{21}{\texorpdfstring {Create\+Delegate()}{CreateDelegate()}\hspace {0.1cm}{\footnotesize \ttfamily [2/2]}}{subsubsection.6.6.2.4}{}}
\@writefile{toc}{\contentsline {subsubsection}{\numberline {6.6.2.5}Create\discretionary {\unhbox \voidb@x \hbox {\relax \fontsize  {7}{8}\selectfont  $\leftarrow \joinrel  \rhook $}}{}{}Instance()\hspace  {0.1cm}{\relax \fontsize  {8}{9.5}\selectfont  \abovedisplayskip 6\p@ plus2\p@ minus4\p@ \abovedisplayshortskip \z@ plus\p@ \belowdisplayshortskip 3\p@ plus\p@ minus2\p@ \def \leftmargin \leftmargini \parsep 4\p@ plus2\p@ minus\p@ \topsep 8\p@ plus2\p@ minus4\p@ \itemsep 4\p@ plus2\p@ minus\p@ {\leftmargin \leftmargini \topsep 3\p@ plus\p@ minus\p@ \parsep 2\p@ plus\p@ minus\p@ \itemsep \parsep }\belowdisplayskip \abovedisplayskip \ttfamily  [1/2]}}{22}{subsubsection.6.6.2.5}}
\newlabel{class_xaml_generated_namespace_1_1_generated_internal_type_helper_aefb7a98fceb9c287cef4756942f441d1}{{6.6.2.5}{22}{\texorpdfstring {Create\+Instance()}{CreateInstance()}\hspace {0.1cm}{\footnotesize \ttfamily [1/2]}}{subsubsection.6.6.2.5}{}}
\@writefile{toc}{\contentsline {subsubsection}{\numberline {6.6.2.6}Create\discretionary {\unhbox \voidb@x \hbox {\relax \fontsize  {7}{8}\selectfont  $\leftarrow \joinrel  \rhook $}}{}{}Instance()\hspace  {0.1cm}{\relax \fontsize  {8}{9.5}\selectfont  \abovedisplayskip 6\p@ plus2\p@ minus4\p@ \abovedisplayshortskip \z@ plus\p@ \belowdisplayshortskip 3\p@ plus\p@ minus2\p@ \def \leftmargin \leftmargini \parsep 4\p@ plus2\p@ minus\p@ \topsep 8\p@ plus2\p@ minus4\p@ \itemsep 4\p@ plus2\p@ minus\p@ {\leftmargin \leftmargini \topsep 3\p@ plus\p@ minus\p@ \parsep 2\p@ plus\p@ minus\p@ \itemsep \parsep }\belowdisplayskip \abovedisplayskip \ttfamily  [2/2]}}{22}{subsubsection.6.6.2.6}}
\newlabel{class_xaml_generated_namespace_1_1_generated_internal_type_helper_afdc9fe15b56607d02082908d934480c6}{{6.6.2.6}{22}{\texorpdfstring {Create\+Instance()}{CreateInstance()}\hspace {0.1cm}{\footnotesize \ttfamily [2/2]}}{subsubsection.6.6.2.6}{}}
\@writefile{toc}{\contentsline {subsubsection}{\numberline {6.6.2.7}Get\discretionary {\unhbox \voidb@x \hbox {\relax \fontsize  {7}{8}\selectfont  $\leftarrow \joinrel  \rhook $}}{}{}Property\discretionary {\unhbox \voidb@x \hbox {\relax \fontsize  {7}{8}\selectfont  $\leftarrow \joinrel  \rhook $}}{}{}Value()\hspace  {0.1cm}{\relax \fontsize  {8}{9.5}\selectfont  \abovedisplayskip 6\p@ plus2\p@ minus4\p@ \abovedisplayshortskip \z@ plus\p@ \belowdisplayshortskip 3\p@ plus\p@ minus2\p@ \def \leftmargin \leftmargini \parsep 4\p@ plus2\p@ minus\p@ \topsep 8\p@ plus2\p@ minus4\p@ \itemsep 4\p@ plus2\p@ minus\p@ {\leftmargin \leftmargini \topsep 3\p@ plus\p@ minus\p@ \parsep 2\p@ plus\p@ minus\p@ \itemsep \parsep }\belowdisplayskip \abovedisplayskip \ttfamily  [1/2]}}{22}{subsubsection.6.6.2.7}}
\newlabel{class_xaml_generated_namespace_1_1_generated_internal_type_helper_afdc9fe15b56607d02082908d934480c6}{{6.6.2.7}{22}{\texorpdfstring {Get\+Property\+Value()}{GetPropertyValue()}\hspace {0.1cm}{\footnotesize \ttfamily [1/2]}}{subsubsection.6.6.2.7}{}}
\@writefile{toc}{\contentsline {subsubsection}{\numberline {6.6.2.8}Get\discretionary {\unhbox \voidb@x \hbox {\relax \fontsize  {7}{8}\selectfont  $\leftarrow \joinrel  \rhook $}}{}{}Property\discretionary {\unhbox \voidb@x \hbox {\relax \fontsize  {7}{8}\selectfont  $\leftarrow \joinrel  \rhook $}}{}{}Value()\hspace  {0.1cm}{\relax \fontsize  {8}{9.5}\selectfont  \abovedisplayskip 6\p@ plus2\p@ minus4\p@ \abovedisplayshortskip \z@ plus\p@ \belowdisplayshortskip 3\p@ plus\p@ minus2\p@ \def \leftmargin \leftmargini \parsep 4\p@ plus2\p@ minus\p@ \topsep 8\p@ plus2\p@ minus4\p@ \itemsep 4\p@ plus2\p@ minus\p@ {\leftmargin \leftmargini \topsep 3\p@ plus\p@ minus\p@ \parsep 2\p@ plus\p@ minus\p@ \itemsep \parsep }\belowdisplayskip \abovedisplayskip \ttfamily  [2/2]}}{22}{subsubsection.6.6.2.8}}
\newlabel{class_xaml_generated_namespace_1_1_generated_internal_type_helper_ade0f04c0f7b18dd5b170e071d5534d38}{{6.6.2.8}{22}{\texorpdfstring {Get\+Property\+Value()}{GetPropertyValue()}\hspace {0.1cm}{\footnotesize \ttfamily [2/2]}}{subsubsection.6.6.2.8}{}}
\@writefile{toc}{\contentsline {subsubsection}{\numberline {6.6.2.9}Set\discretionary {\unhbox \voidb@x \hbox {\relax \fontsize  {7}{8}\selectfont  $\leftarrow \joinrel  \rhook $}}{}{}Property\discretionary {\unhbox \voidb@x \hbox {\relax \fontsize  {7}{8}\selectfont  $\leftarrow \joinrel  \rhook $}}{}{}Value()\hspace  {0.1cm}{\relax \fontsize  {8}{9.5}\selectfont  \abovedisplayskip 6\p@ plus2\p@ minus4\p@ \abovedisplayshortskip \z@ plus\p@ \belowdisplayshortskip 3\p@ plus\p@ minus2\p@ \def \leftmargin \leftmargini \parsep 4\p@ plus2\p@ minus\p@ \topsep 8\p@ plus2\p@ minus4\p@ \itemsep 4\p@ plus2\p@ minus\p@ {\leftmargin \leftmargini \topsep 3\p@ plus\p@ minus\p@ \parsep 2\p@ plus\p@ minus\p@ \itemsep \parsep }\belowdisplayskip \abovedisplayskip \ttfamily  [1/2]}}{22}{subsubsection.6.6.2.9}}
\newlabel{class_xaml_generated_namespace_1_1_generated_internal_type_helper_ade0f04c0f7b18dd5b170e071d5534d38}{{6.6.2.9}{22}{\texorpdfstring {Set\+Property\+Value()}{SetPropertyValue()}\hspace {0.1cm}{\footnotesize \ttfamily [1/2]}}{subsubsection.6.6.2.9}{}}
\@writefile{toc}{\contentsline {subsubsection}{\numberline {6.6.2.10}Set\discretionary {\unhbox \voidb@x \hbox {\relax \fontsize  {7}{8}\selectfont  $\leftarrow \joinrel  \rhook $}}{}{}Property\discretionary {\unhbox \voidb@x \hbox {\relax \fontsize  {7}{8}\selectfont  $\leftarrow \joinrel  \rhook $}}{}{}Value()\hspace  {0.1cm}{\relax \fontsize  {8}{9.5}\selectfont  \abovedisplayskip 6\p@ plus2\p@ minus4\p@ \abovedisplayshortskip \z@ plus\p@ \belowdisplayshortskip 3\p@ plus\p@ minus2\p@ \def \leftmargin \leftmargini \parsep 4\p@ plus2\p@ minus\p@ \topsep 8\p@ plus2\p@ minus4\p@ \itemsep 4\p@ plus2\p@ minus\p@ {\leftmargin \leftmargini \topsep 3\p@ plus\p@ minus\p@ \parsep 2\p@ plus\p@ minus\p@ \itemsep \parsep }\belowdisplayskip \abovedisplayskip \ttfamily  [2/2]}}{23}{subsubsection.6.6.2.10}}
\@writefile{toc}{\contentsline {section}{\numberline {6.7}Snowstorm.\discretionary {\unhbox \voidb@x \hbox {\relax \fontsize  {7}{8}\selectfont  $\leftarrow \joinrel  \rhook $}}{}{}Main\discretionary {\unhbox \voidb@x \hbox {\relax \fontsize  {7}{8}\selectfont  $\leftarrow \joinrel  \rhook $}}{}{}Window Class Reference}{23}{section.6.7}}
\newlabel{class_snowstorm_1_1_main_window}{{6.7}{23}{Snowstorm.\+Main\+Window Class Reference}{section.6.7}{}}
\@writefile{toc}{\contentsline {subsection}{\numberline {6.7.1}Detailed Description}{23}{subsection.6.7.1}}
\@writefile{toc}{\contentsline {subsection}{\numberline {6.7.2}Constructor \& Destructor Documentation}{23}{subsection.6.7.2}}
\newlabel{class_snowstorm_1_1_main_window_a0967fc28019cb900580ece0c49f1e21a}{{6.7.2}{23}{Constructor \& Destructor Documentation}{subsection.6.7.2}{}}
\@writefile{toc}{\contentsline {subsubsection}{\numberline {6.7.2.1}Main\discretionary {\unhbox \voidb@x \hbox {\relax \fontsize  {7}{8}\selectfont  $\leftarrow \joinrel  \rhook $}}{}{}Window()}{24}{subsubsection.6.7.2.1}}
\@writefile{toc}{\contentsline {subsection}{\numberline {6.7.3}Member Function Documentation}{24}{subsection.6.7.3}}
\newlabel{class_snowstorm_1_1_main_window_a3856f4392485dd2194261987dbdc757d}{{6.7.3}{24}{Member Function Documentation}{subsection.6.7.3}{}}
\@writefile{toc}{\contentsline {subsubsection}{\numberline {6.7.3.1}Initialize\discretionary {\unhbox \voidb@x \hbox {\relax \fontsize  {7}{8}\selectfont  $\leftarrow \joinrel  \rhook $}}{}{}Component()\hspace  {0.1cm}{\relax \fontsize  {8}{9.5}\selectfont  \abovedisplayskip 6\p@ plus2\p@ minus4\p@ \abovedisplayshortskip \z@ plus\p@ \belowdisplayshortskip 3\p@ plus\p@ minus2\p@ \def \leftmargin \leftmargini \parsep 4\p@ plus2\p@ minus\p@ \topsep 8\p@ plus2\p@ minus4\p@ \itemsep 4\p@ plus2\p@ minus\p@ {\leftmargin \leftmargini \topsep 3\p@ plus\p@ minus\p@ \parsep 2\p@ plus\p@ minus\p@ \itemsep \parsep }\belowdisplayskip \abovedisplayskip \ttfamily  [1/2]}}{24}{subsubsection.6.7.3.1}}
\newlabel{class_snowstorm_1_1_main_window_a3856f4392485dd2194261987dbdc757d}{{6.7.3.1}{24}{\texorpdfstring {Initialize\+Component()}{InitializeComponent()}\hspace {0.1cm}{\footnotesize \ttfamily [1/2]}}{subsubsection.6.7.3.1}{}}
\@writefile{toc}{\contentsline {subsubsection}{\numberline {6.7.3.2}Initialize\discretionary {\unhbox \voidb@x \hbox {\relax \fontsize  {7}{8}\selectfont  $\leftarrow \joinrel  \rhook $}}{}{}Component()\hspace  {0.1cm}{\relax \fontsize  {8}{9.5}\selectfont  \abovedisplayskip 6\p@ plus2\p@ minus4\p@ \abovedisplayshortskip \z@ plus\p@ \belowdisplayshortskip 3\p@ plus\p@ minus2\p@ \def \leftmargin \leftmargini \parsep 4\p@ plus2\p@ minus\p@ \topsep 8\p@ plus2\p@ minus4\p@ \itemsep 4\p@ plus2\p@ minus\p@ {\leftmargin \leftmargini \topsep 3\p@ plus\p@ minus\p@ \parsep 2\p@ plus\p@ minus\p@ \itemsep \parsep }\belowdisplayskip \abovedisplayskip \ttfamily  [2/2]}}{24}{subsubsection.6.7.3.2}}
\@writefile{toc}{\contentsline {section}{\numberline {6.8}Snowstorm.\discretionary {\unhbox \voidb@x \hbox {\relax \fontsize  {7}{8}\selectfont  $\leftarrow \joinrel  \rhook $}}{}{}Player Class Reference}{24}{section.6.8}}
\newlabel{class_snowstorm_1_1_player}{{6.8}{24}{Snowstorm.\+Player Class Reference}{section.6.8}{}}
\@writefile{toc}{\contentsline {subsection}{\numberline {6.8.1}Detailed Description}{25}{subsection.6.8.1}}
\@writefile{toc}{\contentsline {subsection}{\numberline {6.8.2}Constructor \& Destructor Documentation}{25}{subsection.6.8.2}}
\newlabel{class_snowstorm_1_1_player_a16aa6a069604c53d1f52c260d4378a57}{{6.8.2}{25}{Constructor \& Destructor Documentation}{subsection.6.8.2}{}}
\@writefile{toc}{\contentsline {subsubsection}{\numberline {6.8.2.1}Player()}{25}{subsubsection.6.8.2.1}}
\gdef \LT@ix {\LT@entry 
    {3}{19.29791pt}\LT@entry 
    {3}{78.47661pt}}
\@writefile{toc}{\contentsline {subsection}{\numberline {6.8.3}Member Function Documentation}{26}{subsection.6.8.3}}
\newlabel{class_snowstorm_1_1_player_a3b6292390b7ea36364c0ae14f859e053}{{6.8.3}{26}{Member Function Documentation}{subsection.6.8.3}{}}
\@writefile{toc}{\contentsline {subsubsection}{\numberline {6.8.3.1}Create\discretionary {\unhbox \voidb@x \hbox {\relax \fontsize  {7}{8}\selectfont  $\leftarrow \joinrel  \rhook $}}{}{}Ball()}{26}{subsubsection.6.8.3.1}}
\@writefile{toc}{\contentsline {subsection}{\numberline {6.8.4}Member Data Documentation}{26}{subsection.6.8.4}}
\newlabel{class_snowstorm_1_1_player_a70deaffdfeef6cf963899d60e9b29ffd}{{6.8.4}{26}{Member Data Documentation}{subsection.6.8.4}{}}
\@writefile{toc}{\contentsline {subsubsection}{\numberline {6.8.4.1}Area}{26}{subsubsection.6.8.4.1}}
\@writefile{toc}{\contentsline {subsection}{\numberline {6.8.5}Property Documentation}{26}{subsection.6.8.5}}
\newlabel{class_snowstorm_1_1_player_a1e04ebb5b4617a379e89d3ca3c581dc5}{{6.8.5}{26}{Property Documentation}{subsection.6.8.5}{}}
\@writefile{toc}{\contentsline {subsubsection}{\numberline {6.8.5.1}Armor}{26}{subsubsection.6.8.5.1}}
\newlabel{class_snowstorm_1_1_player_a2c82bf8d9df00f37f3d807e0d6aa884d}{{6.8.5.1}{26}{\texorpdfstring {Armor}{Armor}}{subsubsection.6.8.5.1}{}}
\@writefile{toc}{\contentsline {subsubsection}{\numberline {6.8.5.2}Brush}{26}{subsubsection.6.8.5.2}}
\newlabel{class_snowstorm_1_1_player_aa334541b9c59daa00cb7db6020ec0dd8}{{6.8.5.2}{26}{\texorpdfstring {Brush}{Brush}}{subsubsection.6.8.5.2}{}}
\@writefile{toc}{\contentsline {subsubsection}{\numberline {6.8.5.3}Is\discretionary {\unhbox \voidb@x \hbox {\relax \fontsize  {7}{8}\selectfont  $\leftarrow \joinrel  \rhook $}}{}{}Alive}{27}{subsubsection.6.8.5.3}}
\newlabel{class_snowstorm_1_1_player_a44a46787fad92d47457d72ec8a273334}{{6.8.5.3}{27}{\texorpdfstring {Is\+Alive}{IsAlive}}{subsubsection.6.8.5.3}{}}
\@writefile{toc}{\contentsline {subsubsection}{\numberline {6.8.5.4}Snow\discretionary {\unhbox \voidb@x \hbox {\relax \fontsize  {7}{8}\selectfont  $\leftarrow \joinrel  \rhook $}}{}{}Ball}{27}{subsubsection.6.8.5.4}}
\newlabel{class_snowstorm_1_1_player_a92801aeee30a9772a903a4d90f5f4329}{{6.8.5.4}{27}{\texorpdfstring {Snow\+Ball}{SnowBall}}{subsubsection.6.8.5.4}{}}
\@writefile{toc}{\contentsline {subsubsection}{\numberline {6.8.5.5}State}{27}{subsubsection.6.8.5.5}}
\@writefile{toc}{\contentsline {section}{\numberline {6.9}Snowstorm.\discretionary {\unhbox \voidb@x \hbox {\relax \fontsize  {7}{8}\selectfont  $\leftarrow \joinrel  \rhook $}}{}{}Snow\discretionary {\unhbox \voidb@x \hbox {\relax \fontsize  {7}{8}\selectfont  $\leftarrow \joinrel  \rhook $}}{}{}Ball Class Reference}{27}{section.6.9}}
\newlabel{class_snowstorm_1_1_snow_ball}{{6.9}{27}{Snowstorm.\+Snow\+Ball Class Reference}{section.6.9}{}}
\gdef \LT@x {\LT@entry 
    {3}{17.29996pt}\LT@entry 
    {3}{92.79544pt}}
\@writefile{toc}{\contentsline {subsection}{\numberline {6.9.1}Detailed Description}{28}{subsection.6.9.1}}
\@writefile{toc}{\contentsline {subsection}{\numberline {6.9.2}Constructor \& Destructor Documentation}{28}{subsection.6.9.2}}
\newlabel{class_snowstorm_1_1_snow_ball_ad1256d9316f3d6bc400a3adf8e758c5e}{{6.9.2}{28}{Constructor \& Destructor Documentation}{subsection.6.9.2}{}}
\@writefile{toc}{\contentsline {subsubsection}{\numberline {6.9.2.1}Snow\discretionary {\unhbox \voidb@x \hbox {\relax \fontsize  {7}{8}\selectfont  $\leftarrow \joinrel  \rhook $}}{}{}Ball()}{28}{subsubsection.6.9.2.1}}
\@writefile{toc}{\contentsline {subsection}{\numberline {6.9.3}Member Data Documentation}{28}{subsection.6.9.3}}
\newlabel{class_snowstorm_1_1_snow_ball_a13e5163890a5301e697545174bd0900f}{{6.9.3}{28}{Member Data Documentation}{subsection.6.9.3}{}}
\@writefile{toc}{\contentsline {subsubsection}{\numberline {6.9.3.1}Area}{29}{subsubsection.6.9.3.1}}
\newlabel{class_snowstorm_1_1_snow_ball_abf74b4fed74654b9dd3ab4f5e69b019f}{{6.9.3.1}{29}{\texorpdfstring {Area}{Area}}{subsubsection.6.9.3.1}{}}
\@writefile{toc}{\contentsline {subsubsection}{\numberline {6.9.3.2}SpeedX}{29}{subsubsection.6.9.3.2}}
\newlabel{class_snowstorm_1_1_snow_ball_acefb8712a27550b2013350845bff49db}{{6.9.3.2}{29}{\texorpdfstring {SpeedX}{SpeedX}}{subsubsection.6.9.3.2}{}}
\@writefile{toc}{\contentsline {subsubsection}{\numberline {6.9.3.3}SpeedY}{29}{subsubsection.6.9.3.3}}
\@writefile{toc}{\contentsline {subsection}{\numberline {6.9.4}Property Documentation}{29}{subsection.6.9.4}}
\newlabel{class_snowstorm_1_1_snow_ball_a3cdabf86820177e6d8b51b203b96940a}{{6.9.4}{29}{Property Documentation}{subsection.6.9.4}{}}
\@writefile{toc}{\contentsline {subsubsection}{\numberline {6.9.4.1}Brush}{29}{subsubsection.6.9.4.1}}
\newlabel{class_snowstorm_1_1_snow_ball_a0e7d9762c7ccb6719e569da07b09ad3f}{{6.9.4.1}{29}{\texorpdfstring {Brush}{Brush}}{subsubsection.6.9.4.1}{}}
\@writefile{toc}{\contentsline {subsubsection}{\numberline {6.9.4.2}Power}{29}{subsubsection.6.9.4.2}}
\@writefile{toc}{\contentsline {section}{\numberline {6.10}Snowstorm.\discretionary {\unhbox \voidb@x \hbox {\relax \fontsize  {7}{8}\selectfont  $\leftarrow \joinrel  \rhook $}}{}{}View\discretionary {\unhbox \voidb@x \hbox {\relax \fontsize  {7}{8}\selectfont  $\leftarrow \joinrel  \rhook $}}{}{}Model Class Reference}{30}{section.6.10}}
\newlabel{class_snowstorm_1_1_view_model}{{6.10}{30}{Snowstorm.\+View\+Model Class Reference}{section.6.10}{}}
\@writefile{toc}{\contentsline {subsection}{\numberline {6.10.1}Detailed Description}{30}{subsection.6.10.1}}
\@writefile{toc}{\contentsline {subsection}{\numberline {6.10.2}Constructor \& Destructor Documentation}{30}{subsection.6.10.2}}
\newlabel{class_snowstorm_1_1_view_model_ad4eecd68a605b87be0104c1582ef2db7}{{6.10.2}{30}{Constructor \& Destructor Documentation}{subsection.6.10.2}{}}
\@writefile{toc}{\contentsline {subsubsection}{\numberline {6.10.2.1}View\discretionary {\unhbox \voidb@x \hbox {\relax \fontsize  {7}{8}\selectfont  $\leftarrow \joinrel  \rhook $}}{}{}Model()}{30}{subsubsection.6.10.2.1}}
\gdef \LT@xi {\LT@entry 
    {3}{53.63234pt}\LT@entry 
    {3}{73.78781pt}}
\@writefile{toc}{\contentsline {subsection}{\numberline {6.10.3}Property Documentation}{31}{subsection.6.10.3}}
\newlabel{class_snowstorm_1_1_view_model_abae785b2a9db35515b759b819a8595fb}{{6.10.3}{31}{Property Documentation}{subsection.6.10.3}{}}
\@writefile{toc}{\contentsline {subsubsection}{\numberline {6.10.3.1}First\discretionary {\unhbox \voidb@x \hbox {\relax \fontsize  {7}{8}\selectfont  $\leftarrow \joinrel  \rhook $}}{}{}Team}{31}{subsubsection.6.10.3.1}}
\newlabel{class_snowstorm_1_1_view_model_a801fd34c3278ff2ff3bd565cd44dffcd}{{6.10.3.1}{31}{\texorpdfstring {First\+Team}{FirstTeam}}{subsubsection.6.10.3.1}{}}
\@writefile{toc}{\contentsline {subsubsection}{\numberline {6.10.3.2}Second\discretionary {\unhbox \voidb@x \hbox {\relax \fontsize  {7}{8}\selectfont  $\leftarrow \joinrel  \rhook $}}{}{}Team}{31}{subsubsection.6.10.3.2}}
\@writefile{toc}{\contentsline {chapter}{\numberline {7}File Documentation}{33}{chapter.7}}
\@writefile{lof}{\addvspace {10\p@ }}
\@writefile{lot}{\addvspace {10\p@ }}
\@writefile{toc}{\contentsline {section}{\numberline {7.1}Snowstorm/\discretionary {\unhbox \voidb@x \hbox {\relax \fontsize  {7}{8}\selectfont  $\leftarrow \joinrel  \rhook $}}{}{}Snowstorm/\discretionary {\unhbox \voidb@x \hbox {\relax \fontsize  {7}{8}\selectfont  $\leftarrow \joinrel  \rhook $}}{}{}App.xaml.\discretionary {\unhbox \voidb@x \hbox {\relax \fontsize  {7}{8}\selectfont  $\leftarrow \joinrel  \rhook $}}{}{}cs File Reference}{33}{section.7.1}}
\newlabel{_app_8xaml_8cs}{{7.1}{33}{Snowstorm/\+Snowstorm/\+App.xaml.\+cs File Reference}{section.7.1}{}}
\@writefile{toc}{\contentsline {section}{\numberline {7.2}Snowstorm/\discretionary {\unhbox \voidb@x \hbox {\relax \fontsize  {7}{8}\selectfont  $\leftarrow \joinrel  \rhook $}}{}{}Snowstorm/\discretionary {\unhbox \voidb@x \hbox {\relax \fontsize  {7}{8}\selectfont  $\leftarrow \joinrel  \rhook $}}{}{}Bindable.cs File Reference}{33}{section.7.2}}
\newlabel{_bindable_8cs}{{7.2}{33}{Snowstorm/\+Snowstorm/\+Bindable.cs File Reference}{section.7.2}{}}
\@writefile{toc}{\contentsline {section}{\numberline {7.3}Snowstorm/\discretionary {\unhbox \voidb@x \hbox {\relax \fontsize  {7}{8}\selectfont  $\leftarrow \joinrel  \rhook $}}{}{}Snowstorm/\discretionary {\unhbox \voidb@x \hbox {\relax \fontsize  {7}{8}\selectfont  $\leftarrow \joinrel  \rhook $}}{}{}Game\discretionary {\unhbox \voidb@x \hbox {\relax \fontsize  {7}{8}\selectfont  $\leftarrow \joinrel  \rhook $}}{}{}Field.cs File Reference}{33}{section.7.3}}
\newlabel{_game_field_8cs}{{7.3}{33}{Snowstorm/\+Snowstorm/\+Game\+Field.cs File Reference}{section.7.3}{}}
\@writefile{toc}{\contentsline {section}{\numberline {7.4}Snowstorm/\discretionary {\unhbox \voidb@x \hbox {\relax \fontsize  {7}{8}\selectfont  $\leftarrow \joinrel  \rhook $}}{}{}Snowstorm/\discretionary {\unhbox \voidb@x \hbox {\relax \fontsize  {7}{8}\selectfont  $\leftarrow \joinrel  \rhook $}}{}{}Game\discretionary {\unhbox \voidb@x \hbox {\relax \fontsize  {7}{8}\selectfont  $\leftarrow \joinrel  \rhook $}}{}{}Logic.cs File Reference}{34}{section.7.4}}
\newlabel{_game_logic_8cs}{{7.4}{34}{Snowstorm/\+Snowstorm/\+Game\+Logic.cs File Reference}{section.7.4}{}}
\@writefile{toc}{\contentsline {section}{\numberline {7.5}Snowstorm/\discretionary {\unhbox \voidb@x \hbox {\relax \fontsize  {7}{8}\selectfont  $\leftarrow \joinrel  \rhook $}}{}{}Snowstorm/\discretionary {\unhbox \voidb@x \hbox {\relax \fontsize  {7}{8}\selectfont  $\leftarrow \joinrel  \rhook $}}{}{}Game\discretionary {\unhbox \voidb@x \hbox {\relax \fontsize  {7}{8}\selectfont  $\leftarrow \joinrel  \rhook $}}{}{}Model.cs File Reference}{34}{section.7.5}}
\newlabel{_game_model_8cs}{{7.5}{34}{Snowstorm/\+Snowstorm/\+Game\+Model.cs File Reference}{section.7.5}{}}
\@writefile{toc}{\contentsline {section}{\numberline {7.6}Snowstorm/\discretionary {\unhbox \voidb@x \hbox {\relax \fontsize  {7}{8}\selectfont  $\leftarrow \joinrel  \rhook $}}{}{}Snowstorm/\discretionary {\unhbox \voidb@x \hbox {\relax \fontsize  {7}{8}\selectfont  $\leftarrow \joinrel  \rhook $}}{}{}Main\discretionary {\unhbox \voidb@x \hbox {\relax \fontsize  {7}{8}\selectfont  $\leftarrow \joinrel  \rhook $}}{}{}Window.xaml.\discretionary {\unhbox \voidb@x \hbox {\relax \fontsize  {7}{8}\selectfont  $\leftarrow \joinrel  \rhook $}}{}{}cs File Reference}{34}{section.7.6}}
\newlabel{_main_window_8xaml_8cs}{{7.6}{34}{Snowstorm/\+Snowstorm/\+Main\+Window.xaml.\+cs File Reference}{section.7.6}{}}
\@writefile{toc}{\contentsline {section}{\numberline {7.7}Snowstorm/\discretionary {\unhbox \voidb@x \hbox {\relax \fontsize  {7}{8}\selectfont  $\leftarrow \joinrel  \rhook $}}{}{}Snowstorm/obj/\discretionary {\unhbox \voidb@x \hbox {\relax \fontsize  {7}{8}\selectfont  $\leftarrow \joinrel  \rhook $}}{}{}Debug/\discretionary {\unhbox \voidb@x \hbox {\relax \fontsize  {7}{8}\selectfont  $\leftarrow \joinrel  \rhook $}}{}{}App.g.\discretionary {\unhbox \voidb@x \hbox {\relax \fontsize  {7}{8}\selectfont  $\leftarrow \joinrel  \rhook $}}{}{}cs File Reference}{34}{section.7.7}}
\newlabel{_app_8g_8cs}{{7.7}{34}{Snowstorm/\+Snowstorm/obj/\+Debug/\+App.g.\+cs File Reference}{section.7.7}{}}
\@writefile{toc}{\contentsline {section}{\numberline {7.8}Snowstorm/\discretionary {\unhbox \voidb@x \hbox {\relax \fontsize  {7}{8}\selectfont  $\leftarrow \joinrel  \rhook $}}{}{}Snowstorm/obj/\discretionary {\unhbox \voidb@x \hbox {\relax \fontsize  {7}{8}\selectfont  $\leftarrow \joinrel  \rhook $}}{}{}Debug/\discretionary {\unhbox \voidb@x \hbox {\relax \fontsize  {7}{8}\selectfont  $\leftarrow \joinrel  \rhook $}}{}{}App.g.\discretionary {\unhbox \voidb@x \hbox {\relax \fontsize  {7}{8}\selectfont  $\leftarrow \joinrel  \rhook $}}{}{}i.\discretionary {\unhbox \voidb@x \hbox {\relax \fontsize  {7}{8}\selectfont  $\leftarrow \joinrel  \rhook $}}{}{}cs File Reference}{35}{section.7.8}}
\newlabel{_app_8g_8i_8cs}{{7.8}{35}{Snowstorm/\+Snowstorm/obj/\+Debug/\+App.g.\+i.\+cs File Reference}{section.7.8}{}}
\@writefile{toc}{\contentsline {section}{\numberline {7.9}Snowstorm/\discretionary {\unhbox \voidb@x \hbox {\relax \fontsize  {7}{8}\selectfont  $\leftarrow \joinrel  \rhook $}}{}{}Snowstorm/obj/\discretionary {\unhbox \voidb@x \hbox {\relax \fontsize  {7}{8}\selectfont  $\leftarrow \joinrel  \rhook $}}{}{}Debug/\discretionary {\unhbox \voidb@x \hbox {\relax \fontsize  {7}{8}\selectfont  $\leftarrow \joinrel  \rhook $}}{}{}Generated\discretionary {\unhbox \voidb@x \hbox {\relax \fontsize  {7}{8}\selectfont  $\leftarrow \joinrel  \rhook $}}{}{}Internal\discretionary {\unhbox \voidb@x \hbox {\relax \fontsize  {7}{8}\selectfont  $\leftarrow \joinrel  \rhook $}}{}{}Type\discretionary {\unhbox \voidb@x \hbox {\relax \fontsize  {7}{8}\selectfont  $\leftarrow \joinrel  \rhook $}}{}{}Helper.g.\discretionary {\unhbox \voidb@x \hbox {\relax \fontsize  {7}{8}\selectfont  $\leftarrow \joinrel  \rhook $}}{}{}cs File Reference}{35}{section.7.9}}
\newlabel{_generated_internal_type_helper_8g_8cs}{{7.9}{35}{Snowstorm/\+Snowstorm/obj/\+Debug/\+Generated\+Internal\+Type\+Helper.g.\+cs File Reference}{section.7.9}{}}
\@writefile{toc}{\contentsline {section}{\numberline {7.10}Snowstorm/\discretionary {\unhbox \voidb@x \hbox {\relax \fontsize  {7}{8}\selectfont  $\leftarrow \joinrel  \rhook $}}{}{}Snowstorm/obj/\discretionary {\unhbox \voidb@x \hbox {\relax \fontsize  {7}{8}\selectfont  $\leftarrow \joinrel  \rhook $}}{}{}Debug/\discretionary {\unhbox \voidb@x \hbox {\relax \fontsize  {7}{8}\selectfont  $\leftarrow \joinrel  \rhook $}}{}{}Generated\discretionary {\unhbox \voidb@x \hbox {\relax \fontsize  {7}{8}\selectfont  $\leftarrow \joinrel  \rhook $}}{}{}Internal\discretionary {\unhbox \voidb@x \hbox {\relax \fontsize  {7}{8}\selectfont  $\leftarrow \joinrel  \rhook $}}{}{}Type\discretionary {\unhbox \voidb@x \hbox {\relax \fontsize  {7}{8}\selectfont  $\leftarrow \joinrel  \rhook $}}{}{}Helper.g.\discretionary {\unhbox \voidb@x \hbox {\relax \fontsize  {7}{8}\selectfont  $\leftarrow \joinrel  \rhook $}}{}{}i.\discretionary {\unhbox \voidb@x \hbox {\relax \fontsize  {7}{8}\selectfont  $\leftarrow \joinrel  \rhook $}}{}{}cs File Reference}{35}{section.7.10}}
\newlabel{_generated_internal_type_helper_8g_8i_8cs}{{7.10}{35}{Snowstorm/\+Snowstorm/obj/\+Debug/\+Generated\+Internal\+Type\+Helper.g.\+i.\+cs File Reference}{section.7.10}{}}
\@writefile{toc}{\contentsline {section}{\numberline {7.11}Snowstorm/\discretionary {\unhbox \voidb@x \hbox {\relax \fontsize  {7}{8}\selectfont  $\leftarrow \joinrel  \rhook $}}{}{}Snowstorm/obj/\discretionary {\unhbox \voidb@x \hbox {\relax \fontsize  {7}{8}\selectfont  $\leftarrow \joinrel  \rhook $}}{}{}Debug/\discretionary {\unhbox \voidb@x \hbox {\relax \fontsize  {7}{8}\selectfont  $\leftarrow \joinrel  \rhook $}}{}{}Main\discretionary {\unhbox \voidb@x \hbox {\relax \fontsize  {7}{8}\selectfont  $\leftarrow \joinrel  \rhook $}}{}{}Window.g.\discretionary {\unhbox \voidb@x \hbox {\relax \fontsize  {7}{8}\selectfont  $\leftarrow \joinrel  \rhook $}}{}{}cs File Reference}{35}{section.7.11}}
\newlabel{_main_window_8g_8cs}{{7.11}{35}{Snowstorm/\+Snowstorm/obj/\+Debug/\+Main\+Window.g.\+cs File Reference}{section.7.11}{}}
\@writefile{toc}{\contentsline {section}{\numberline {7.12}Snowstorm/\discretionary {\unhbox \voidb@x \hbox {\relax \fontsize  {7}{8}\selectfont  $\leftarrow \joinrel  \rhook $}}{}{}Snowstorm/obj/\discretionary {\unhbox \voidb@x \hbox {\relax \fontsize  {7}{8}\selectfont  $\leftarrow \joinrel  \rhook $}}{}{}Debug/\discretionary {\unhbox \voidb@x \hbox {\relax \fontsize  {7}{8}\selectfont  $\leftarrow \joinrel  \rhook $}}{}{}Main\discretionary {\unhbox \voidb@x \hbox {\relax \fontsize  {7}{8}\selectfont  $\leftarrow \joinrel  \rhook $}}{}{}Window.g.\discretionary {\unhbox \voidb@x \hbox {\relax \fontsize  {7}{8}\selectfont  $\leftarrow \joinrel  \rhook $}}{}{}i.\discretionary {\unhbox \voidb@x \hbox {\relax \fontsize  {7}{8}\selectfont  $\leftarrow \joinrel  \rhook $}}{}{}cs File Reference}{36}{section.7.12}}
\newlabel{_main_window_8g_8i_8cs}{{7.12}{36}{Snowstorm/\+Snowstorm/obj/\+Debug/\+Main\+Window.g.\+i.\+cs File Reference}{section.7.12}{}}
\@writefile{toc}{\contentsline {section}{\numberline {7.13}Snowstorm/\discretionary {\unhbox \voidb@x \hbox {\relax \fontsize  {7}{8}\selectfont  $\leftarrow \joinrel  \rhook $}}{}{}Snowstorm/obj/\discretionary {\unhbox \voidb@x \hbox {\relax \fontsize  {7}{8}\selectfont  $\leftarrow \joinrel  \rhook $}}{}{}Debug/\discretionary {\unhbox \voidb@x \hbox {\relax \fontsize  {7}{8}\selectfont  $\leftarrow \joinrel  \rhook $}}{}{}Temporary\discretionary {\unhbox \voidb@x \hbox {\relax \fontsize  {7}{8}\selectfont  $\leftarrow \joinrel  \rhook $}}{}{}Generated\discretionary {\unhbox \voidb@x \hbox {\relax \fontsize  {7}{8}\selectfont  $\leftarrow \joinrel  \rhook $}}{}{}File\discretionary {\unhbox \voidb@x \hbox {\relax \fontsize  {7}{8}\selectfont  $\leftarrow \joinrel  \rhook $}}{}{}\_\discretionary {\unhbox \voidb@x \hbox {\relax \fontsize  {7}{8}\selectfont  $\leftarrow \joinrel  \rhook $}}{}{}036\discretionary {\unhbox \voidb@x \hbox {\relax \fontsize  {7}{8}\selectfont  $\leftarrow \joinrel  \rhook $}}{}{}C0\discretionary {\unhbox \voidb@x \hbox {\relax \fontsize  {7}{8}\selectfont  $\leftarrow \joinrel  \rhook $}}{}{}B5\discretionary {\unhbox \voidb@x \hbox {\relax \fontsize  {7}{8}\selectfont  $\leftarrow \joinrel  \rhook $}}{}{}B-\/1481-\/4323-\/8\discretionary {\unhbox \voidb@x \hbox {\relax \fontsize  {7}{8}\selectfont  $\leftarrow \joinrel  \rhook $}}{}{}D20-\/8\discretionary {\unhbox \voidb@x \hbox {\relax \fontsize  {7}{8}\selectfont  $\leftarrow \joinrel  \rhook $}}{}{}F5\discretionary {\unhbox \voidb@x \hbox {\relax \fontsize  {7}{8}\selectfont  $\leftarrow \joinrel  \rhook $}}{}{}A\discretionary {\unhbox \voidb@x \hbox {\relax \fontsize  {7}{8}\selectfont  $\leftarrow \joinrel  \rhook $}}{}{}D\discretionary {\unhbox \voidb@x \hbox {\relax \fontsize  {7}{8}\selectfont  $\leftarrow \joinrel  \rhook $}}{}{}C\discretionary {\unhbox \voidb@x \hbox {\relax \fontsize  {7}{8}\selectfont  $\leftarrow \joinrel  \rhook $}}{}{}B23\discretionary {\unhbox \voidb@x \hbox {\relax \fontsize  {7}{8}\selectfont  $\leftarrow \joinrel  \rhook $}}{}{}D92.cs File Reference}{36}{section.7.13}}
\newlabel{_temporary_generated_file__036_c0_b5_b-1481-4323-8_d20-8_f5_a_d_c_b23_d92_8cs}{{7.13}{36}{Snowstorm/\+Snowstorm/obj/\+Debug/\+Temporary\+Generated\+File\+\_\+036\+C0\+B5\+B-\/1481-\/4323-\/8\+D20-\/8\+F5\+A\+D\+C\+B23\+D92.cs File Reference}{section.7.13}{}}
\@writefile{toc}{\contentsline {section}{\numberline {7.14}Snowstorm/\discretionary {\unhbox \voidb@x \hbox {\relax \fontsize  {7}{8}\selectfont  $\leftarrow \joinrel  \rhook $}}{}{}Snowstorm/obj/\discretionary {\unhbox \voidb@x \hbox {\relax \fontsize  {7}{8}\selectfont  $\leftarrow \joinrel  \rhook $}}{}{}Debug/\discretionary {\unhbox \voidb@x \hbox {\relax \fontsize  {7}{8}\selectfont  $\leftarrow \joinrel  \rhook $}}{}{}Temporary\discretionary {\unhbox \voidb@x \hbox {\relax \fontsize  {7}{8}\selectfont  $\leftarrow \joinrel  \rhook $}}{}{}Generated\discretionary {\unhbox \voidb@x \hbox {\relax \fontsize  {7}{8}\selectfont  $\leftarrow \joinrel  \rhook $}}{}{}File\discretionary {\unhbox \voidb@x \hbox {\relax \fontsize  {7}{8}\selectfont  $\leftarrow \joinrel  \rhook $}}{}{}\_\discretionary {\unhbox \voidb@x \hbox {\relax \fontsize  {7}{8}\selectfont  $\leftarrow \joinrel  \rhook $}}{}{}5937a670-\/0e60-\/4077-\/877b-\/f7221da3dda1.cs File Reference}{36}{section.7.14}}
\newlabel{_temporary_generated_file__5937a670-0e60-4077-877b-f7221da3dda1_8cs}{{7.14}{36}{Snowstorm/\+Snowstorm/obj/\+Debug/\+Temporary\+Generated\+File\+\_\+5937a670-\/0e60-\/4077-\/877b-\/f7221da3dda1.cs File Reference}{section.7.14}{}}
\@writefile{toc}{\contentsline {section}{\numberline {7.15}Snowstorm/\discretionary {\unhbox \voidb@x \hbox {\relax \fontsize  {7}{8}\selectfont  $\leftarrow \joinrel  \rhook $}}{}{}Snowstorm/obj/\discretionary {\unhbox \voidb@x \hbox {\relax \fontsize  {7}{8}\selectfont  $\leftarrow \joinrel  \rhook $}}{}{}Debug/\discretionary {\unhbox \voidb@x \hbox {\relax \fontsize  {7}{8}\selectfont  $\leftarrow \joinrel  \rhook $}}{}{}Temporary\discretionary {\unhbox \voidb@x \hbox {\relax \fontsize  {7}{8}\selectfont  $\leftarrow \joinrel  \rhook $}}{}{}Generated\discretionary {\unhbox \voidb@x \hbox {\relax \fontsize  {7}{8}\selectfont  $\leftarrow \joinrel  \rhook $}}{}{}File\discretionary {\unhbox \voidb@x \hbox {\relax \fontsize  {7}{8}\selectfont  $\leftarrow \joinrel  \rhook $}}{}{}\_\discretionary {\unhbox \voidb@x \hbox {\relax \fontsize  {7}{8}\selectfont  $\leftarrow \joinrel  \rhook $}}{}{}\discretionary {\unhbox \voidb@x \hbox {\relax \fontsize  {7}{8}\selectfont  $\leftarrow \joinrel  \rhook $}}{}{}E7\discretionary {\unhbox \voidb@x \hbox {\relax \fontsize  {7}{8}\selectfont  $\leftarrow \joinrel  \rhook $}}{}{}A71\discretionary {\unhbox \voidb@x \hbox {\relax \fontsize  {7}{8}\selectfont  $\leftarrow \joinrel  \rhook $}}{}{}F73-\/0\discretionary {\unhbox \voidb@x \hbox {\relax \fontsize  {7}{8}\selectfont  $\leftarrow \joinrel  \rhook $}}{}{}F8\discretionary {\unhbox \voidb@x \hbox {\relax \fontsize  {7}{8}\selectfont  $\leftarrow \joinrel  \rhook $}}{}{}D-\/4\discretionary {\unhbox \voidb@x \hbox {\relax \fontsize  {7}{8}\selectfont  $\leftarrow \joinrel  \rhook $}}{}{}B9\discretionary {\unhbox \voidb@x \hbox {\relax \fontsize  {7}{8}\selectfont  $\leftarrow \joinrel  \rhook $}}{}{}B-\/\discretionary {\unhbox \voidb@x \hbox {\relax \fontsize  {7}{8}\selectfont  $\leftarrow \joinrel  \rhook $}}{}{}B56\discretionary {\unhbox \voidb@x \hbox {\relax \fontsize  {7}{8}\selectfont  $\leftarrow \joinrel  \rhook $}}{}{}E-\/8\discretionary {\unhbox \voidb@x \hbox {\relax \fontsize  {7}{8}\selectfont  $\leftarrow \joinrel  \rhook $}}{}{}E70\discretionary {\unhbox \voidb@x \hbox {\relax \fontsize  {7}{8}\selectfont  $\leftarrow \joinrel  \rhook $}}{}{}B10\discretionary {\unhbox \voidb@x \hbox {\relax \fontsize  {7}{8}\selectfont  $\leftarrow \joinrel  \rhook $}}{}{}B\discretionary {\unhbox \voidb@x \hbox {\relax \fontsize  {7}{8}\selectfont  $\leftarrow \joinrel  \rhook $}}{}{}C5\discretionary {\unhbox \voidb@x \hbox {\relax \fontsize  {7}{8}\selectfont  $\leftarrow \joinrel  \rhook $}}{}{}D3.cs File Reference}{36}{section.7.15}}
\newlabel{_temporary_generated_file___e7_a71_f73-0_f8_d-4_b9_b-_b56_e-8_e70_b10_b_c5_d3_8cs}{{7.15}{36}{Snowstorm/\+Snowstorm/obj/\+Debug/\+Temporary\+Generated\+File\+\_\+\+E7\+A71\+F73-\/0\+F8\+D-\/4\+B9\+B-\/\+B56\+E-\/8\+E70\+B10\+B\+C5\+D3.cs File Reference}{section.7.15}{}}
\@writefile{toc}{\contentsline {section}{\numberline {7.16}Snowstorm/\discretionary {\unhbox \voidb@x \hbox {\relax \fontsize  {7}{8}\selectfont  $\leftarrow \joinrel  \rhook $}}{}{}Snowstorm/\discretionary {\unhbox \voidb@x \hbox {\relax \fontsize  {7}{8}\selectfont  $\leftarrow \joinrel  \rhook $}}{}{}Player.cs File Reference}{36}{section.7.16}}
\newlabel{_player_8cs}{{7.16}{36}{Snowstorm/\+Snowstorm/\+Player.cs File Reference}{section.7.16}{}}
\@writefile{toc}{\contentsline {section}{\numberline {7.17}Snowstorm/\discretionary {\unhbox \voidb@x \hbox {\relax \fontsize  {7}{8}\selectfont  $\leftarrow \joinrel  \rhook $}}{}{}Snowstorm/\discretionary {\unhbox \voidb@x \hbox {\relax \fontsize  {7}{8}\selectfont  $\leftarrow \joinrel  \rhook $}}{}{}Properties/\discretionary {\unhbox \voidb@x \hbox {\relax \fontsize  {7}{8}\selectfont  $\leftarrow \joinrel  \rhook $}}{}{}Assembly\discretionary {\unhbox \voidb@x \hbox {\relax \fontsize  {7}{8}\selectfont  $\leftarrow \joinrel  \rhook $}}{}{}Info.cs File Reference}{37}{section.7.17}}
\newlabel{_assembly_info_8cs}{{7.17}{37}{Snowstorm/\+Snowstorm/\+Properties/\+Assembly\+Info.cs File Reference}{section.7.17}{}}
\@writefile{toc}{\contentsline {section}{\numberline {7.18}Snowstorm/\discretionary {\unhbox \voidb@x \hbox {\relax \fontsize  {7}{8}\selectfont  $\leftarrow \joinrel  \rhook $}}{}{}Snowstorm/\discretionary {\unhbox \voidb@x \hbox {\relax \fontsize  {7}{8}\selectfont  $\leftarrow \joinrel  \rhook $}}{}{}Properties/\discretionary {\unhbox \voidb@x \hbox {\relax \fontsize  {7}{8}\selectfont  $\leftarrow \joinrel  \rhook $}}{}{}Resources.Designer.\discretionary {\unhbox \voidb@x \hbox {\relax \fontsize  {7}{8}\selectfont  $\leftarrow \joinrel  \rhook $}}{}{}cs File Reference}{37}{section.7.18}}
\newlabel{_resources_8_designer_8cs}{{7.18}{37}{Snowstorm/\+Snowstorm/\+Properties/\+Resources.Designer.\+cs File Reference}{section.7.18}{}}
\@writefile{toc}{\contentsline {section}{\numberline {7.19}Snowstorm/\discretionary {\unhbox \voidb@x \hbox {\relax \fontsize  {7}{8}\selectfont  $\leftarrow \joinrel  \rhook $}}{}{}Snowstorm/\discretionary {\unhbox \voidb@x \hbox {\relax \fontsize  {7}{8}\selectfont  $\leftarrow \joinrel  \rhook $}}{}{}Properties/\discretionary {\unhbox \voidb@x \hbox {\relax \fontsize  {7}{8}\selectfont  $\leftarrow \joinrel  \rhook $}}{}{}Settings.Designer.\discretionary {\unhbox \voidb@x \hbox {\relax \fontsize  {7}{8}\selectfont  $\leftarrow \joinrel  \rhook $}}{}{}cs File Reference}{37}{section.7.19}}
\newlabel{_settings_8_designer_8cs}{{7.19}{37}{Snowstorm/\+Snowstorm/\+Properties/\+Settings.Designer.\+cs File Reference}{section.7.19}{}}
\@writefile{toc}{\contentsline {section}{\numberline {7.20}Snowstorm/\discretionary {\unhbox \voidb@x \hbox {\relax \fontsize  {7}{8}\selectfont  $\leftarrow \joinrel  \rhook $}}{}{}Snowstorm/\discretionary {\unhbox \voidb@x \hbox {\relax \fontsize  {7}{8}\selectfont  $\leftarrow \joinrel  \rhook $}}{}{}Snow\discretionary {\unhbox \voidb@x \hbox {\relax \fontsize  {7}{8}\selectfont  $\leftarrow \joinrel  \rhook $}}{}{}Ball.cs File Reference}{37}{section.7.20}}
\newlabel{_snow_ball_8cs}{{7.20}{37}{Snowstorm/\+Snowstorm/\+Snow\+Ball.cs File Reference}{section.7.20}{}}
\@writefile{toc}{\contentsline {section}{\numberline {7.21}Snowstorm/\discretionary {\unhbox \voidb@x \hbox {\relax \fontsize  {7}{8}\selectfont  $\leftarrow \joinrel  \rhook $}}{}{}Snowstorm/\discretionary {\unhbox \voidb@x \hbox {\relax \fontsize  {7}{8}\selectfont  $\leftarrow \joinrel  \rhook $}}{}{}View\discretionary {\unhbox \voidb@x \hbox {\relax \fontsize  {7}{8}\selectfont  $\leftarrow \joinrel  \rhook $}}{}{}Model.cs File Reference}{37}{section.7.21}}
\newlabel{_view_model_8cs}{{7.21}{37}{Snowstorm/\+Snowstorm/\+View\+Model.cs File Reference}{section.7.21}{}}
